{
  "builders": [
    {
      "type": "docker",
      "image": "ubuntu:bionic",
      "commit": true
    }
  ],
  "provisioners": [
    {
      "type": "shell",
      "inline": [
        "pwd",
        "echo 'Hello World'"
      ]
    }
  ]
}